{
  "images" : [
    {
      "idiom" : "universal",
      "filename" : "Groupe 1051.png",
      "language-direction" : "left-to-right",
      "scale" : "1x"
    },
    {
      "idiom" : "universal",
      "filename" : "useless-right.png",
      "language-direction" : "right-to-left",
      "scale" : "1x"
    },
    {
      "idiom" : "universal",
      "filename" : "Groupe 1051@2x.png",
      "language-direction" : "left-to-right",
      "scale" : "2x"
    },
    {
      "idiom" : "universal",
      "filename" : "useless-right@2x.png",
      "language-direction" : "right-to-left",
      "scale" : "2x"
    },
    {
      "idiom" : "universal",
      "filename" : "Groupe 1051@3x.png",
      "language-direction" : "left-to-right",
      "scale" : "3x"
    },
    {
      "idiom" : "universal",
      "filename" : "useless-right@3x.png",
      "language-direction" : "right-to-left",
      "scale" : "3x"
    }
  ],
  "info" : {
    "version" : 1,
    "author" : "xcode"
  }
}