{
  "images" : [
    {
      "filename" : "back_Button.png",
      "idiom" : "universal",
      "language-direction" : "left-to-right",
      "scale" : "1x"
    },
    {
      "filename" : "backButton.png 20-17-10-388.png",
      "idiom" : "universal",
      "language-direction" : "right-to-left",
      "scale" : "1x"
    },
    {
      "filename" : "back_Button@2x.png",
      "idiom" : "universal",
      "language-direction" : "left-to-right",
      "scale" : "2x"
    },
    {
      "filename" : "backButton@2x.png",
      "idiom" : "universal",
      "language-direction" : "right-to-left",
      "scale" : "2x"
    },
    {
      "filename" : "back_Button@3x.png",
      "idiom" : "universal",
      "language-direction" : "left-to-right",
      "scale" : "3x"
    },
    {
      "filename" : "backButton@3x.png",
      "idiom" : "universal",
      "language-direction" : "right-to-left",
      "scale" : "3x"
    }
  ],
  "info" : {
    "author" : "xcode",
    "version" : 1
  }
}
